# Energy in atomic unit (1 Eh = 2625.499640 kJ/mol)
# -------------------------------------------------
# step         Hamiltonian             Kinetic energy          Potential energy          Coulomb energy       van_der_Waals energy      Coulomb LR energy       Coulomb keq0 energy       Coulomb SR energy       Coulomb self energy     Coulomb molecule energy     Fumi-Tosi energy     Fumi-Tosi molecule energy
      0  -1.393809387775313E+002   6.470389475914654E+000  -1.458508357482337E+002  -1.664704944828742E+002   2.061965873464052E+001   3.810993767053893E-001   4.998246371835274E-002  -9.784887076640459E+001  -6.905270555689341E+001   0.000000000000000E+000   2.061965873464052E+001   0.000000000000000E+000
      1  -1.393808112330420E+002   6.464077084837506E+000  -1.458440895006819E+002  -1.665193678180403E+002   2.067527831735838E+001   3.795962229803887E-001   4.740120877442493E-002  -9.789402858945942E+001  -6.905233666033570E+001   0.000000000000000E+000   2.067527831735838E+001   0.000000000000000E+000
      2  -1.393808342248151E+002   6.498508617068169E+000  -1.458781537363198E+002  -1.665471988585234E+002   2.066904512220358E+001   3.762657597965363E-001   4.443849526798656E-002  -9.791571434242711E+001  -6.905218877116076E+001   0.000000000000000E+000   2.066904512220358E+001   0.000000000000000E+000
      3  -1.393807339528896E+002   6.571478385977019E+000  -1.459505499900672E+002  -1.665587554926462E+002   2.060820550257901E+001   3.712806545460814E-001   4.116750221667329E-002  -9.791895434685415E+001  -6.905224930255481E+001   0.000000000000000E+000   2.060820550257901E+001   0.000000000000000E+000
      4  -1.393807429950638E+002   6.681347788784714E+000  -1.460598769821831E+002  -1.665580133474488E+002   2.049813636526577E+001   3.648564304517370E-001   3.767006842432045E-002  -9.790803656760485E+001  -6.905250327872005E+001   0.000000000000000E+000   2.049813636526577E+001   0.000000000000000E+000
      5  -1.393808115873943E+002   6.826246093165729E+000  -1.462042230753971E+002  -1.665480226970009E+002   2.034379962160385E+001   3.572338449360445E-001   3.403361258746215E-002  -9.788635560126644E+001  -6.905293455325801E+001   0.000000000000000E+000   2.034379962160385E+001   0.000000000000000E+000
