# Pressure of the system
# ----------------
# Pressure:   1 bar = 3.3988273773641905e-09 ua
# step       Total pressure           xx component            yy component            zz component            xy component            xz component            yz component            LR correction     
       0 -7.064539387511914E-006 -1.264194539675651E-005 -1.320092656159919E-006 -3.075972033731592E-006 -8.442424574592062E-008  5.345589450509352E-007  2.045441639906200E-006 -1.385202691962576E-006
