# Energy in atomic unit (1 Eh = 2625.499640 kJ/mol)
# -------------------------------------------------
# step         Hamiltonian             Total energy           Kinetic energy         Potential energy        Thermostat energy    External field energy 
       0 -6.516006998295887E+001 -6.516006998295887E+001  3.525810919198014E+000 -6.868588090215688E+001  0.000000000000000E+000  0.000000000000000E+000
