# Energy in atomic unit (1 Eh = 2625.499640 kJ/mol)
# -------------------------------------------------
# step         Hamiltonian             Kinetic energy          Potential energy        Thomas-Fermi energy
      0 -1.381197069778426E+002   8.914974225043002E+000  -1.470346812028856E+002   1.525411181270620E-002 
      1 -1.381197827554097E+002   9.100629826483269E+000  -1.472204125818930E+002   1.553339183627371E-002 
