ITEM: TIMESTEP
0
ITEM: NUMBER OF ATOMS
432
ITEM: BOX BOUNDS pp pp ff
0.0000000000000000e+00 9.8379999999999992e+00
0.0000000000000000e+00 8.5199999999999996e+00
-4.0200000000000003e+01 4.0200000000000003e+01
ITEM: ATOMS id element x y z fx fy fz q 
1 CAB               7.6195                1.197              -5.9445     610830.638764424     -110260.17699702    -193696.035469422                0.129 
2 CAB                6.908               6.3325            -2.578501    -462664.324155297    -280022.130995709      363023.00351376                0.129 
3 CAB                4.957               5.0595            13.240999     575815.648900404    -112458.901986176    -275432.443315389                0.129 
4 CAB               6.1445               2.0715           -13.028502     547341.249969991     226547.570916428    -262736.371972768                0.129 
5 CAB                6.845                7.103            16.753498     545308.461535097      210204.10935945    -286902.468389386                0.129 
6 CAB               8.4125               2.9295            20.894499     82963.1737496844     562449.380852779    -313721.606094905                0.129 
7 CAB               2.9065                 7.27           -26.448002     626470.912243533     124455.038711493    -120481.476924102                0.129 
8 CAB                2.971                 7.14           -10.447501    -483195.772139785     190686.741410884     387094.949091424                0.129 
9 CAB               4.9535                3.875           -17.716002     55305.1245787545    -430428.549346748    -483970.642451359                0.129 
10 CAB                2.574               2.6385             -18.0325     314933.322359573    -557024.950623662    -120001.351513805                0.129 
11 CAB                1.309                2.844           -26.234001    -96260.3595305858     452204.155939872     452217.189005756                0.129 
12 CAB               8.2625               7.2745             1.553999      82520.592689669     126691.862548371     631764.935022822                0.129 
13 CAB               7.0695                 6.78            13.896999    -615502.413325636     145924.509581581     151323.462817221                0.129 
14 CAB                6.951               1.5225            -0.447001    -610734.572733618     5673.82369608482    -214761.935010668                0.129 
15 CAB               6.2815               1.9045              -16.881     432842.274342122     159373.850252125    -458232.746564205                0.129 
16 CAB                2.797               3.5895            25.823498     618447.266803151    -67724.6578776362      190389.55041012                0.129 
17 CAB                8.338                2.233              -3.0445     177738.965962074    -603507.703515393    -159662.365240053                0.129 
18 CAB               2.3045               1.4535            23.840001    -605379.113196912    -225769.244991708     68375.8638428208                0.129 
19 CAB                1.407                5.694             -15.1445    -201716.434165327    -545636.061202638     292815.505583193                0.129 
20 CAB                6.096               6.6655             9.421497    -496794.313650545    -119484.039433337    -403659.309489743                0.129 
21 CAB               7.7515                1.291              11.2815     538157.247522517    -81645.1611376476    -353074.342515834                0.129 
22 CAB                 2.72               7.3025           -22.401001    -604192.790865496     107835.526593312     -204191.38140052                0.129 
23 CAB               7.1605               4.8295             1.938999     480782.490725435     158625.191164025     405825.581862282                0.129 
24 CAB                7.175                 2.07           -20.309501     573305.357376099     220361.324984813     214642.289571184                0.129 
25 CAB               2.7155               7.0675           -19.087502     489840.467775363     226754.689273018     361534.845815717                0.129 
26 CAB               8.4405               3.3545            -6.829001     200958.547223194    -21498.4418014882     618894.941965689                0.129 
27 CAB               3.3435                4.262            -8.913501     117834.695214921    -372116.137478546    -520418.617761951                0.129 
28 CAB                6.692                5.797              25.7285    -263163.613171026    -322404.104848821     495982.268751124                0.129 
29 CAB               2.9425                7.287            11.508999     600835.027287714     120333.398041421    -206604.851650929                0.129 
30 CAB                 1.29               1.5525           -22.057001    -143498.575855103    -69003.5166557765    -628852.072324827                0.129 
31 CAB                4.637               1.3305             6.370501    -625673.394005737    -164619.736689786     -12063.315841575                0.129 
32 CAB                3.588               2.6415              -0.0385      175766.93669342     535498.344265502    -322088.135750919                0.129 
33 CAB               1.4075               1.5695           -15.638501    -201852.923052674    -154301.456408258    -597591.718773054                0.129 
34 CAB                7.892               1.9775           -26.641001     383921.408833266     153017.500104973     501948.856072271                0.129 
35 CAB               1.2155                3.566            16.751999    -109612.896590253     158348.930210523     619549.564871967                0.129 
36 CAB                4.147               2.4025            -7.496002     581195.428506561     89305.6979317599    -274600.780859952                0.129 
37 CAB                4.869                5.574              -13.992    -210191.895757962    -609697.336176565     90953.4469929519                0.129 
38 CAB               7.5105                1.612            18.891998     610982.291860215    -194372.653622166    -106184.652671796                0.129 
39 CAB                7.858               5.9955            21.740499     486168.571970291     -320858.34800937     287705.691874851                0.129 
40 CAB                3.767               6.2085               19.439    -11894.5544067499     646266.808863376     63401.1463482047                0.129 
41 CAB                8.445                2.365             8.225498     152705.818296073    -631191.406289526    -27540.6405099223                0.129 
42 CAB                4.231                2.407            -3.064501     481094.986787103     382869.854567953     201539.262229192                0.129 
43 CAB                5.022               5.7815               -4.961     152317.312505276    -609355.136813852      168083.63396035                0.129 
44 CAB               8.6155                6.071              -17.473     111654.339561294     623111.239776077      155162.73040397                0.129 
45 CAB               8.3465                1.827            25.676499     244310.522399483    -412395.639714652    -442998.601672146                0.129 
46 CAB               7.6465                2.417                2.858     608575.410867983     224173.611498174    -22241.6431709499                0.129 
47 CAB                2.111                6.521             0.119999    -568355.063652645    -215596.039697324     233491.733604813                0.129 
48 CAB                1.653                4.008              10.7375    -331183.014099455    -398011.651582607     391333.513476524                0.129 
49 CAB                1.238               1.9975            20.059999    -103163.158275929    -387807.062217883    -508006.584245624                0.129 
50 CAB               6.5925                7.157              -9.8825     359315.290314022     56596.6900772798    -538972.094127941                0.129 
51 CAB                8.399               6.1435              -7.9805     137773.595253139    -32412.4088350789    -633838.246457566                0.129 
52 CAB               8.3245               4.9235           -25.480001    -1689.67320958869    -307710.188126798     570422.308565318                0.129 
53 CAB                6.966                7.148                6.588    -624114.635283531     185852.308090067    -11437.4925538378                0.129 
54 CAB                4.313                2.344            14.009501     479594.150400403     352705.288033204     255061.637236809                0.129 
55 CAB                5.318               5.8415             -19.5595    -525407.026298175    -375002.180575753    -74635.9707277003                0.129 
56 CAB               6.4305               2.2905              23.6875    -101117.225350401    -639981.705231641    -20016.4223645717                0.129 
57 CAB               8.4715                6.372           -14.136501     183822.815807639     538932.289637798    -311046.869428772                0.129 
58 CAB               2.7425                4.715            -2.514002     553346.179266793     290899.548147016    -176937.237791847                0.129 
59 CAB                8.576               5.6165           -21.689501     131626.405293621    -623570.189377064     132862.348841978                0.129 
60 CAB               4.9545               3.7735             8.701498    -234900.918783188     184629.002249113    -574893.028329015                0.129 
61 CAB                2.778                1.263             3.893499     632812.123105722    -131361.081147906     43187.4871618542                0.129 
62 CAB               3.6375               3.8565           -26.850001    -10106.5593087906    -279764.516092379     586342.979460997                0.129 
63 CAB                4.001                7.303             3.114498    -641789.312588492     108778.056450498     -28165.847142611                0.129 
64 CAB               7.6845                3.394           -11.336001     575860.272502948    -258088.757931457    -148726.573890581                0.129 
65 CAB                4.419               5.7695               5.5735      519438.97490199    -375660.137200834    -102800.729653472                0.129 
66 CAB               2.7705               4.5345           -23.302501    -354504.543075641     456063.878961303    -297012.599858294                0.129 
67 CAB                1.788                4.004             1.475498    -390582.700292557    -277845.868086483    -440967.208395311                0.129 
68 CAB               1.3315                5.705           -12.399501    -172568.856360822     536239.832618306    -319132.609971533                0.129 
69 CAB               2.7455               3.5435             5.519001     578772.013004143    -165953.049777255    -236244.847251598                0.129 
70 CAB                2.944               6.9685              21.9275     588151.524194425     273309.104199768     4257.04431969935                0.129 
71 CAB                4.339               1.2145            16.612998     485025.340614111    -112278.465180589    -418023.264701827                0.129 
72 CAB               1.3275                6.248            -3.839001    -163401.418938551     264821.073230839     570499.173872301                0.129 
73 CAB                6.368                 6.54           -24.778002     427622.115579272      486244.81894564     60557.6323401143                0.129 
74 CAB               8.4345               5.6585            17.892001     203235.031317612     547641.965509094     278996.192366018                0.129 
75 CAB               2.7205               1.5485             8.775999     648603.677362579     18094.4743536944    -35160.0547066977                0.129 
76 CAB               2.8825                1.217            -9.724501     632259.039484331    -109545.341086675     119262.479239756                0.129 
77 CAB               2.6385               7.0975            16.343498     507101.982062716     221932.708100022    -340969.858405256                0.129 
78 CAB               2.4205                7.179              24.9165    -615025.369195356     168784.048403771    -120019.130921468                0.129 
79 CAB                6.523               2.5305           -23.435502     215459.359522336     434141.822881129     432149.444972362                0.129 
80 CAB                8.433                2.748              14.7015     202032.471044985     404584.290632112    -467896.219261482                0.129 
81 CAC                6.388                1.419            -5.554001    -875709.775786357      157849.47334213     277697.944877503                0.269 
82 CAC                7.839                6.896            -3.309002     663199.138929783     401392.872090971    -520383.687574163                0.269 
83 CAC                3.792                5.287               13.798    -825546.276334016     161199.092856653     394662.799596412                0.269 
84 CAC                5.037                1.613           -12.497002    -784646.388714517    -324861.458785243     376542.754824306                0.269 
85 CAC                5.747                 6.68            17.330997    -781811.230101207     -301172.44876671     411194.390110342                0.269 
86 CAC                8.245                1.794               21.528     -118882.92655538     -806228.88226121     449844.807271898                0.269 
87 CAC                1.643                7.019           -26.205002    -898042.802894183    -178382.942088268     172698.077784541                0.269 
88 CAC                3.949                6.754           -11.231001     692644.438166969    -273364.858212101    -554912.439153061                0.269 
89 CAC                4.842                4.743           -16.740002    -79256.0230191785     617061.914082421     693811.419026781                0.269 
90 CAC                 1.94                 3.76              -17.791     -451449.89726025     798564.257075229     171933.621231354                0.269 
91 CAC                1.504                1.927           -27.151001      137822.54822953    -648293.403988057    -648271.934985454                0.269 
92 CAC                8.096                7.019             0.278999    -118267.771257832    -181492.323057393    -905686.258219411                0.269 
93 CAC                 8.31                6.486            13.591999     882358.919781876    -209104.545065012    -216962.699215748                0.269 
94 CAC                8.188                1.511            -0.012001     875479.522587648    -8106.91033080399     307857.419315015                0.269 
95 CAC                5.409                1.583           -15.957001    -620353.898130953    -228626.554473538     656975.872186161                0.269 
96 CAC                1.551                3.726            25.439999    -886569.288984034     97158.4540617919    -272836.509065615                0.269 
97 CAC                7.979                3.452               -2.722    -254745.526791613     865116.490400291     228875.046439791                0.269 
98 CAC                3.526                1.909               23.702     867792.209490543     323569.810954203    -98089.6625905227                0.269 
99 CAC                1.813                6.792           -15.734001     289208.254860765     782097.082364775     -419929.93548566                0.269 
100 CAC                7.096                6.906            10.233997     712164.402490755      171266.00587612     578621.734357062                0.269 
101 CAC                6.664                1.456            11.994999    -771422.580718786     117029.522651624     506141.849088403                0.269 
102 CAC                3.945                7.084           -21.987001     866159.368423162    -154462.348502649     292688.123383134                0.269 
103 CAC                6.189                4.509             1.118999    -689236.457892378    -227362.025400401    -581762.221608045                0.269 
104 CAC                 6.02                1.626           -20.742001    -821804.945607244    -315993.452373546    -307727.122216979                0.269 
105 CAC                1.727                 6.61           -19.817001    -702266.822596674     -325007.42121315    -518184.622679821                0.269 
106 CAC                8.036                3.398            -8.075001    -288011.074002054     30912.3296486543    -887254.796760662                0.269 
107 CAC                3.106                5.012            -7.865002    -168971.170220041     533639.610225709      745879.45749678                0.269 
108 CAC                7.225                 6.45            24.724003       377252.0501661     462213.473765439    -710933.688526212                0.269 
109 CAC                1.724                7.043            11.927998    -861297.321295577    -172429.634336125     296180.280314789                0.269 
110 CAC                 1.58                1.692           -20.786001     205664.977242627     98935.4392851467     901447.221553775                0.269 
111 CAC                5.905                1.664                6.395     896998.877536832      235958.89713387     17321.7420455009                0.269 
112 CAC                3.233                 1.56                0.612    -251967.145770394    -767649.179453981     461717.269953956                0.269 
113 CAC                1.815                1.881           -14.432001     289341.269319841     221149.426626264      856656.37737108                0.269 
114 CAC                7.118                1.669              -27.653    -550330.008551706    -219351.662943227    -719553.355702157                0.269 
115 CAC                1.437                3.246                 15.5      157128.24891669    -226980.750105937    -888107.467156239                0.269 
116 CAC                2.973                2.222            -6.941002    -833081.031445288    -128151.779384816     393896.103444055                0.269 
117 CAC                5.292                6.801           -14.175001     301299.691788384     874014.049404555    -130365.686314946                0.269 
118 CAC                6.278                2.004            19.105999    -875907.756889755     278567.129819562     152054.107591167                0.269 
119 CAC                6.877                6.643                21.16    -696915.952238551     460002.377871119    -412406.010578886                0.269 
120 CAC                3.791                4.904            19.311001     17042.8237448934    -926439.425536249    -90898.7034215584                0.269 
121 CAC                8.137                3.638             8.280998    -218896.164552049     904826.052096787     39435.6089648397                0.269 
122 CAC                3.256                1.631               -3.473    -689627.425673791    -548892.347129913    -288938.222799033                0.269 
123 CAC                4.715                 7.01            -5.299999    -218286.414847217     873523.317755029    -241044.651695982                0.269 
124 CAC                8.391                4.818              -17.785     -160014.30271439    -893218.448168747    -222402.861470839                0.269 
125 CAC                7.856                2.655            26.565998    -350178.754894818     591134.359425111     635077.280008767                0.269 
126 CAC                6.417                1.964                2.903    -872341.946219916    -321431.253342824     31938.3571698414                0.269 
127 CAC                3.255                6.955            -0.350002      814729.13942364      309084.14421452    -334715.071184191                0.269 
128 CAC                2.322                4.812             9.946999     474737.474358355     570517.043989361    -560999.764434953                0.269 
129 CAC                1.447                2.783            21.089001     147950.155523778     555906.704478694     728225.559142267                0.269 
130 CAC                5.868                7.043            -8.796001    -515197.520887058    -81037.7445806063     772563.844762836                0.269 
131 CAC                8.121                6.209               -6.701    -197406.244744317     46562.0707949668     908642.515780471                0.269 
132 CAC                8.328                5.546           -26.634001     2510.90844449726     441073.489932575    -817727.943499285                0.269 
133 CAC                8.222                6.774                6.611     894679.835762347    -266407.520127893      16374.231548728                0.269 
134 CAC                3.342                 1.63               13.493    -687534.042419922    -505573.124277369    -365742.795527732                0.269 
135 CAC                6.378                6.598              -19.409      753191.05790016     537568.353626131     106930.822313276                0.269 
136 CAC                6.635                3.585            23.728001     144906.158182843     917393.260697177     28677.3561012433                0.269 
137 CAC                  8.1                5.283           -13.508001    -263531.157680122    -772514.394439361     445834.993202285                0.269 
138 CAC                1.626                4.128            -2.157001    -793230.283848636     -417096.88403882      253651.62979831                0.269 
139 CAC                8.311                6.872           -21.957001    -188657.705593168     893883.026789044    -190455.561438159                0.269 
140 CAC                 5.43                  3.4             9.864998     336827.261539636    -264462.486121425     824136.713097379                0.269 
141 CAC                1.497                1.529                3.806    -907195.397607785     188350.717412467    -61980.5666907514                0.269 
142 CAC                3.658                4.421           -28.033001     14571.6345375664     401081.734671156    -840527.847795716                0.269 
143 CAC                5.292                7.084             3.170998     920028.005761446    -156059.810324957     40226.7235399235                0.269 
144 CAC                 6.52                3.916              -11.035    -825426.238355039     370068.236270738     213424.364991218                0.269 
145 CAC                 3.37                6.528             5.780998    -744742.780147973     538438.824972458     147329.753385114                0.269 
146 CAC                3.486                3.614           -22.703001     508178.773592273    -653762.367372415     425795.143217779                0.269 
147 CAC                2.574                4.563             2.362999     559909.595556741     398171.931638827     632230.374708117                0.269 
148 CAC                1.681                4.619              -11.753     247336.296012349    -768663.224485866     457573.785479241                0.269 
149 CAC                1.572                 3.88             5.998001     -829700.06041625     237910.660259514     338671.689723299                0.269 
150 CAC                1.755                6.416            21.918999    -843136.238500044    -391782.024346629    -6039.82495027678                0.269 
151 CAC                3.361                1.441            17.455997    -695223.972860735     161019.984746907      599279.36677409                0.269 
152 CAC                1.657                5.714            -4.990002     234116.857136586    -379453.973983196    -817951.820967859                0.269 
153 CAC                5.506                 5.56           -24.900002    -613068.565265742    -696968.995773626    -86744.6718614158                0.269 
154 CAC                8.023                4.549               17.327    -291193.388818356     -785175.61343807    -399826.689476826                0.269 
155 CAC                1.412                1.512                8.847    -929679.589780526    -25939.5850262815     50460.9400001826                0.269 
156 CAC                1.613                1.437            -9.964001    -906384.027793818      157224.38819474    -171016.454665489                0.269 
157 CAC                1.616                 6.65            17.030998    -726926.517862681    -318120.326675094     488756.118788321                0.269 
158 CAC                3.663                6.838               25.159     881629.759183791    -241956.073970677     172075.873043443                0.269 
159 CAC                6.088                1.654           -24.308001    -308890.306819864     -622334.73743577     -619476.33993378                0.269 
160 CAC                8.026                1.933            15.644001    -289611.767636378    -579982.441211685     670681.973592257                0.269 
161 NAA                8.851                0.975            -6.334999     264829.512096075    -47875.0159895367    -83979.3861552781               -0.398 
162 NAA                5.977                5.769               -1.848    -200471.002847609     -121350.48126331     157405.816060229               -0.398 
163 NAA                6.122                4.832            12.683998      249599.73765734    -48809.6932760703    -119410.159322536               -0.398 
164 NAA                7.252                 2.53           -13.560001     237224.881383804     98170.3331258522    -113987.916883373               -0.398 
165 NAA                7.943                7.526            16.175999     236422.525291337     91130.9847896012    -124331.862199414               -0.398 
166 NAA                 8.58                4.065            20.260998     35962.5653574897     243725.216577967    -136080.891315437               -0.398 
167 NAA                 4.17                7.521           -26.691002     271561.025976684     53958.2421529041    -52245.7087856265               -0.398 
168 NAA                1.993                7.526            -9.664001     -209472.33851829     82386.9301050984     167835.164540043               -0.398 
169 NAA                5.065                3.007           -18.692001     23933.0150996849    -186497.198027656    -209841.412290891               -0.398 
170 NAA                3.208                1.517              -18.274     136467.667464551    -241493.506865068    -51989.1340293901               -0.398 
171 NAA                1.114                3.761           -25.317001    -41738.5268276646     195981.683999577     195961.200049184               -0.398 
172 NAA                8.429                 7.53             2.828999     35777.4946421318     54977.3517867221     273879.090575681               -0.398 
173 NAA                5.829                7.074               14.202    -266741.952765219     63355.2579528827      65622.750473945               -0.398 
174 NAA                5.714                1.534               -0.882    -264662.358846954     2383.48921239019    -93069.6404060703               -0.398 
175 NAA                7.154                2.226              -17.805     187629.408486372     69063.5696145224    -198496.240848637               -0.398 
176 NAA                4.043                3.453            26.206997     268083.083516608    -29372.1544683358     82517.8940774391               -0.398 
177 NAA                8.697                1.014            -3.367001     77063.9462145577    -261580.783579751    -69193.9543436099               -0.398 
178 NAA                1.083                0.998            23.978001    -262241.273037363    -97427.7267308043     29411.9476556174               -0.398 
179 NAA                1.001                4.596              -14.555    -87457.9155505429    -236542.371915913     126875.555977301               -0.398 
180 NAA                5.096                6.425             8.608997    -215372.436346814    -51787.5695171122    -174881.364374026               -0.398 
181 NAA                8.839                1.126            10.568001     233278.176278471    -35408.1994140406     -152936.61850403               -0.398 
182 NAA                1.495                7.521           -22.815001     -261923.78311142     46728.5638288752     -88479.268940748               -0.398 
183 NAA                8.132                 5.15             2.758999     208380.970366248     68697.1191408413     175958.910691969               -0.398 
184 NAA                 8.33                2.514           -19.877001     248547.039842361     95490.5319703518     93024.0556663837               -0.398 
185 NAA                3.704                7.525           -18.358002     212332.839264352     98270.8251655156     156735.060906118               -0.398 
186 NAA                8.845                3.311               -5.583     87148.2275739631    -9235.05764380232     268307.459142614               -0.398 
187 NAA                3.581                3.512               -9.962     51131.3992658995    -161210.339080968     -225579.20033959               -0.398 
188 NAA                6.159                5.144            26.732998    -114071.128620137    -139744.552624292      214994.56156823               -0.398 
189 NAA                4.161                7.531                11.09     260426.041494918     52165.5569426577     -89531.974151753               -0.398 
190 NAA                    1                1.413           -23.328001    -62202.6685313448    -29881.6942683256    -272609.268174996               -0.398 
191 NAA                3.369                0.997             6.346001    -271261.274970237    -71393.0791213688    -5192.49910622959               -0.398 
192 NAA                3.943                3.723            -0.688999     76215.3795044021     232102.396616929    -139428.921800608               -0.398 
193 NAA                    1                1.258           -16.845001    -87583.2378473561    -66959.2718993729    -258978.811667544               -0.398 
194 NAA                8.666                2.286           -25.629002     166394.329604062     66229.6313118933     217534.529153321               -0.398 
195 NAA                0.994                3.886            18.003998    -47496.3836711349     68645.3631768891       268558.4169019               -0.398 
196 NAA                5.321                2.583            -8.051003     251945.683554709     38762.7205211025    -119041.155509775               -0.398 
197 NAA                4.446                4.347              -13.809     -91121.098156575    -264287.992686133     39430.7115916871               -0.398 
198 NAA                8.743                 1.22            18.677998     264500.204557749    -84246.0688577717    -46069.3206989126               -0.398 
199 NAA                8.839                5.348            22.320999     210752.278774216    -139066.245013741     124772.742267068               -0.398 
200 NAA                3.743                7.513            19.566998    -5153.20859299187     280161.251209101     27368.0326995983               -0.398 
201 NAA                8.753                1.092             8.169998     66121.4388818325     -273631.31632024        -12035.547447               -0.398 
202 NAA                5.206                3.183            -2.656002     208568.003521134     165888.957590494     87327.4135257481               -0.398 
203 NAA                5.329                4.553            -4.622002      66068.343179235     -264123.56368251     72737.0095963928               -0.398 
204 NAA                 8.84                7.324           -17.161001     48390.2199646945      270101.16046138     67168.4316143251               -0.398 
205 NAA                8.837                0.999            24.786999     105695.817951845    -178756.451274754    -191951.379485219               -0.398 
206 NAA                8.876                 2.87                2.813     263828.672380115     97105.0300958795    -9645.79739074906               -0.398 
207 NAA                0.967                6.087                 0.59    -246397.409546408    -93351.6413744112     101165.728015614               -0.398 
208 NAA                0.984                3.204               11.528     -143555.49492283    -172526.907263961      169643.08265411               -0.398 
209 NAA                1.029                1.212            19.030998     -44387.955908388     -168117.20483896    -220138.233261112               -0.398 
210 NAA                7.317                7.271              -10.969     155746.892719603     24538.6296027289     -233654.55354447               -0.398 
211 NAA                8.677                6.078                -9.26     59812.7836763959    -14127.2433806898    -274705.767872922               -0.398 
212 NAA                8.321                4.301              -24.326    -705.893939488663    -133275.101175141       247225.5135782               -0.398 
213 NAA                 5.71                7.522             6.564999    -270393.060668791     80617.3811264177    -4955.05799795768               -0.398 
214 NAA                5.284                3.058            14.526001     207929.035068249      152835.29480101     110630.807113402               -0.398 
215 NAA                4.258                5.085           -19.710001      -227783.9411605    -162501.539729812    -32449.4765469006               -0.398 
216 NAA                6.226                0.996            23.646999    -43822.7280360066    -277435.867729451    -8680.21843639481               -0.398 
217 NAA                8.843                7.461           -14.765001     79668.1552141701     233632.791775823    -134742.860651884               -0.398 
218 NAA                3.859                5.302            -2.871002     239678.584325323     126151.798052979    -76624.6415267316               -0.398 
219 NAA                8.841                4.361           -21.422001     57140.9244222073    -270220.297455257     57607.2111457939               -0.398 
220 NAA                4.479                4.147             7.537998     -101854.41559365     79951.0604609158     -249111.78181386               -0.398 
221 NAA                4.059                0.997             3.980999     274311.962935932    -56894.0498562337      18652.965193272               -0.398 
222 NAA                3.617                3.292              -25.667    -4266.65148430896    -121280.393471626     254162.277588968               -0.398 
223 NAA                 2.71                7.522             3.057999    -278225.552224939     47076.4353409516    -12235.6663244834               -0.398 
224 NAA                8.849                2.872           -11.637001     249642.414943687    -111889.431801027     -64472.415691003               -0.398 
225 NAA                5.468                5.011             5.366001     225264.859182464    -162771.612687372     -44572.709956679               -0.398 
226 NAA                2.055                5.455              -23.902    -153628.471369832     197624.548405381     -128766.24188044               -0.398 
227 NAA                1.002                3.445             0.587997    -169340.424891045    -120434.134076747    -191163.606711298               -0.398 
228 NAA                0.982                6.791           -13.046001    -74780.7326763142     232508.108189927     -138217.86288857               -0.398 
229 NAA                3.919                3.207             5.040001     250811.968845401    -71829.7512334136      -102470.9795419               -0.398 
230 NAA                4.133                7.521            21.936001     254970.736309873     118480.113219117     1920.09838581944               -0.398 
231 NAA                5.317                0.988                15.77     210281.753499781    -48772.6635244152    -181109.981033703               -0.398 
232 NAA                0.998                6.782               -2.688    -70824.3396168062     114801.599356327     247322.922072236               -0.398 
233 NAA                 7.23                 7.52           -24.656002     185380.147062934      210765.99874816     26228.0382427729               -0.398 
234 NAA                8.846                6.768            18.457001     88082.7446080206     237414.635530611     120966.579235946               -0.398 
235 NAA                4.029                1.585             8.704998     281041.602337232     7675.13013507088    -15154.9281897105               -0.398 
236 NAA                4.152                0.997            -9.485001     274053.566896436    -47603.6587673237     51606.9968431528               -0.398 
237 NAA                3.661                7.545            15.655998     219737.307389744     96140.5692061876    -147825.926979236               -0.398 
238 NAA                1.178                 7.52               24.674    -266584.540158777     72729.2115192036    -51871.6629981643               -0.398 
239 NAA                6.958                3.407           -22.563002     93280.7965839759     188171.207948263     187294.058526386               -0.398 
240 NAA                 8.84                3.563            13.758999     87581.8385054824     175374.304275607    -202816.859990381               -0.398 
241 CG                0.615                1.065              -38.525                    0                    0                    0                    0 
242 CG                0.615                3.905              -38.525                    0                    0                    0                    0 
243 CG                1.845                1.775              -38.525                    0                    0                    0                    0 
244 CG                1.845                3.195              -38.525                    0                    0                    0                    0 
245 CG                3.074                1.065              -38.525                    0                    0                    0                    0 
246 CG                3.074                3.905              -38.525                    0                    0                    0                    0 
247 CG                4.304                1.775              -38.525                    0                    0                    0                    0 
248 CG                4.304                3.195              -38.525                    0                    0                    0                    0 
249 CG                5.534                1.065              -38.525                    0                    0                    0                    0 
250 CG                5.534                3.905              -38.525                    0                    0                    0                    0 
251 CG                6.764                1.775              -38.525                    0                    0                    0                    0 
252 CG                6.764                3.195              -38.525                    0                    0                    0                    0 
253 CG                7.993                1.065              -38.525                    0                    0                    0                    0 
254 CG                7.993                3.905              -38.525                    0                    0                    0                    0 
255 CG                9.223                1.775              -38.525                    0                    0                    0                    0 
256 CG                9.223                3.195              -38.525                    0                    0                    0                    0 
257 CG                0.615                5.325              -38.525                    0                    0                    0                    0 
258 CG                0.615                8.165              -38.525                    0                    0                    0                    0 
259 CG                1.845                6.035              -38.525                    0                    0                    0                    0 
260 CG                1.845                7.455              -38.525                    0                    0                    0                    0 
261 CG                3.074                5.325              -38.525                    0                    0                    0                    0 
262 CG                3.074                8.165              -38.525                    0                    0                    0                    0 
263 CG                4.304                6.035              -38.525                    0                    0                    0                    0 
264 CG                4.304                7.455              -38.525                    0                    0                    0                    0 
265 CG                5.534                5.325              -38.525                    0                    0                    0                    0 
266 CG                5.534                8.165              -38.525                    0                    0                    0                    0 
267 CG                6.764                6.035              -38.525                    0                    0                    0                    0 
268 CG                6.764                7.455              -38.525                    0                    0                    0                    0 
269 CG                7.993                5.325              -38.525                    0                    0                    0                    0 
270 CG                7.993                8.165              -38.525                    0                    0                    0                    0 
271 CG                9.223                6.035              -38.525                    0                    0                    0                    0 
272 CG                9.223                7.455              -38.525                    0                    0                    0                    0 
273 CG                9.223                0.355              -35.175                    0                    0                    0                    0 
274 CG                9.223                3.195              -35.175                    0                    0                    0                    0 
275 CG                7.993                1.065              -35.175                    0                    0                    0                    0 
276 CG                7.993                2.485              -35.175                    0                    0                    0                    0 
277 CG                6.764                0.355              -35.175                    0                    0                    0                    0 
278 CG                6.764                3.195              -35.175                    0                    0                    0                    0 
279 CG                5.534                1.065              -35.175                    0                    0                    0                    0 
280 CG                5.534                2.485              -35.175                    0                    0                    0                    0 
281 CG                4.304                0.355              -35.175                    0                    0                    0                    0 
282 CG                4.304                3.195              -35.175                    0                    0                    0                    0 
283 CG                3.074                1.065              -35.175                    0                    0                    0                    0 
284 CG                3.074                2.485              -35.175                    0                    0                    0                    0 
285 CG                1.845                0.355              -35.175                    0                    0                    0                    0 
286 CG                1.845                3.195              -35.175                    0                    0                    0                    0 
287 CG                0.615                1.065              -35.175                    0                    0                    0                    0 
288 CG                0.615                2.485              -35.175                    0                    0                    0                    0 
289 CG                9.223                4.615              -35.175                    0                    0                    0                    0 
290 CG                9.223                7.455              -35.175                    0                    0                    0                    0 
291 CG                7.993                5.325              -35.175                    0                    0                    0                    0 
292 CG                7.993                6.745              -35.175                    0                    0                    0                    0 
293 CG                6.764                4.615              -35.175                    0                    0                    0                    0 
294 CG                6.764                7.455              -35.175                    0                    0                    0                    0 
295 CG                5.534                5.325              -35.175                    0                    0                    0                    0 
296 CG                5.534                6.745              -35.175                    0                    0                    0                    0 
297 CG                4.304                4.615              -35.175                    0                    0                    0                    0 
298 CG                4.304                7.455              -35.175                    0                    0                    0                    0 
299 CG                3.074                5.325              -35.175                    0                    0                    0                    0 
300 CG                3.074                6.745              -35.175                    0                    0                    0                    0 
301 CG                1.845                4.615              -35.175                    0                    0                    0                    0 
302 CG                1.845                7.455              -35.175                    0                    0                    0                    0 
303 CG                0.615                5.325              -35.175                    0                    0                    0                    0 
304 CG                0.615                6.745              -35.175                    0                    0                    0                    0 
305 CG                0.615                1.065              -31.825                    0                    0                    0                    0 
306 CG                0.615                3.905              -31.825                    0                    0                    0                    0 
307 CG                1.845                1.775              -31.825                    0                    0                    0                    0 
308 CG                1.845                3.195              -31.825                    0                    0                    0                    0 
309 CG                3.074                1.065              -31.825                    0                    0                    0                    0 
310 CG                3.074                3.905              -31.825                    0                    0                    0                    0 
311 CG                4.304                1.775              -31.825                    0                    0                    0                    0 
312 CG                4.304                3.195              -31.825                    0                    0                    0                    0 
313 CG                5.534                1.065              -31.825                    0                    0                    0                    0 
314 CG                5.534                3.905              -31.825                    0                    0                    0                    0 
315 CG                6.764                1.775              -31.825                    0                    0                    0                    0 
316 CG                6.764                3.195              -31.825                    0                    0                    0                    0 
317 CG                7.993                1.065              -31.825                    0                    0                    0                    0 
318 CG                7.993                3.905              -31.825                    0                    0                    0                    0 
319 CG                9.223                1.775              -31.825                    0                    0                    0                    0 
320 CG                9.223                3.195              -31.825                    0                    0                    0                    0 
321 CG                0.615                5.325              -31.825                    0                    0                    0                    0 
322 CG                0.615                8.165              -31.825                    0                    0                    0                    0 
323 CG                1.845                6.035              -31.825                    0                    0                    0                    0 
324 CG                1.845                7.455              -31.825                    0                    0                    0                    0 
325 CG                3.074                5.325              -31.825                    0                    0                    0                    0 
326 CG                3.074                8.165              -31.825                    0                    0                    0                    0 
327 CG                4.304                6.035              -31.825                    0                    0                    0                    0 
328 CG                4.304                7.455              -31.825                    0                    0                    0                    0 
329 CG                5.534                5.325              -31.825                    0                    0                    0                    0 
330 CG                5.534                8.165              -31.825                    0                    0                    0                    0 
331 CG                6.764                6.035              -31.825                    0                    0                    0                    0 
332 CG                6.764                7.455              -31.825                    0                    0                    0                    0 
333 CG                7.993                5.325              -31.825                    0                    0                    0                    0 
334 CG                7.993                8.165              -31.825                    0                    0                    0                    0 
335 CG                9.223                6.035              -31.825                    0                    0                    0                    0 
336 CG                9.223                7.455              -31.825                    0                    0                    0                    0 
337 CG                0.615                1.065               31.825                    0                    0                    0                    0 
338 CG                0.615                3.905               31.825                    0                    0                    0                    0 
339 CG                1.845                1.775               31.825                    0                    0                    0                    0 
340 CG                1.845                3.195               31.825                    0                    0                    0                    0 
341 CG                3.074                1.065               31.825                    0                    0                    0                    0 
342 CG                3.074                3.905               31.825                    0                    0                    0                    0 
343 CG                4.304                1.775               31.825                    0                    0                    0                    0 
344 CG                4.304                3.195               31.825                    0                    0                    0                    0 
345 CG                5.534                1.065               31.825                    0                    0                    0                    0 
346 CG                5.534                3.905               31.825                    0                    0                    0                    0 
347 CG                6.764                1.775               31.825                    0                    0                    0                    0 
348 CG                6.764                3.195               31.825                    0                    0                    0                    0 
349 CG                7.993                1.065               31.825                    0                    0                    0                    0 
350 CG                7.993                3.905               31.825                    0                    0                    0                    0 
351 CG                9.223                1.775               31.825                    0                    0                    0                    0 
352 CG                9.223                3.195               31.825                    0                    0                    0                    0 
353 CG                0.615                5.325               31.825                    0                    0                    0                    0 
354 CG                0.615                8.165               31.825                    0                    0                    0                    0 
355 CG                1.845                6.035               31.825                    0                    0                    0                    0 
356 CG                1.845                7.455               31.825                    0                    0                    0                    0 
357 CG                3.074                5.325               31.825                    0                    0                    0                    0 
358 CG                3.074                8.165               31.825                    0                    0                    0                    0 
359 CG                4.304                6.035               31.825                    0                    0                    0                    0 
360 CG                4.304                7.455               31.825                    0                    0                    0                    0 
361 CG                5.534                5.325               31.825                    0                    0                    0                    0 
362 CG                5.534                8.165               31.825                    0                    0                    0                    0 
363 CG                6.764                6.035               31.825                    0                    0                    0                    0 
364 CG                6.764                7.455               31.825                    0                    0                    0                    0 
365 CG                7.993                5.325               31.825                    0                    0                    0                    0 
366 CG                7.993                8.165               31.825                    0                    0                    0                    0 
367 CG                9.223                6.035               31.825                    0                    0                    0                    0 
368 CG                9.223                7.455               31.825                    0                    0                    0                    0 
369 CG                9.223                0.355               35.175                    0                    0                    0                    0 
370 CG                9.223                3.195               35.175                    0                    0                    0                    0 
371 CG                7.993                1.065               35.175                    0                    0                    0                    0 
372 CG                7.993                2.485               35.175                    0                    0                    0                    0 
373 CG                6.764                0.355               35.175                    0                    0                    0                    0 
374 CG                6.764                3.195               35.175                    0                    0                    0                    0 
375 CG                5.534                1.065               35.175                    0                    0                    0                    0 
376 CG                5.534                2.485               35.175                    0                    0                    0                    0 
377 CG                4.304                0.355               35.175                    0                    0                    0                    0 
378 CG                4.304                3.195               35.175                    0                    0                    0                    0 
379 CG                3.074                1.065               35.175                    0                    0                    0                    0 
380 CG                3.074                2.485               35.175                    0                    0                    0                    0 
381 CG                1.845                0.355               35.175                    0                    0                    0                    0 
382 CG                1.845                3.195               35.175                    0                    0                    0                    0 
383 CG                0.615                1.065               35.175                    0                    0                    0                    0 
384 CG                0.615                2.485               35.175                    0                    0                    0                    0 
385 CG                9.223                4.615               35.175                    0                    0                    0                    0 
386 CG                9.223                7.455               35.175                    0                    0                    0                    0 
387 CG                7.993                5.325               35.175                    0                    0                    0                    0 
388 CG                7.993                6.745               35.175                    0                    0                    0                    0 
389 CG                6.764                4.615               35.175                    0                    0                    0                    0 
390 CG                6.764                7.455               35.175                    0                    0                    0                    0 
391 CG                5.534                5.325               35.175                    0                    0                    0                    0 
392 CG                5.534                6.745               35.175                    0                    0                    0                    0 
393 CG                4.304                4.615               35.175                    0                    0                    0                    0 
394 CG                4.304                7.455               35.175                    0                    0                    0                    0 
395 CG                3.074                5.325               35.175                    0                    0                    0                    0 
396 CG                3.074                6.745               35.175                    0                    0                    0                    0 
397 CG                1.845                4.615               35.175                    0                    0                    0                    0 
398 CG                1.845                7.455               35.175                    0                    0                    0                    0 
399 CG                0.615                5.325               35.175                    0                    0                    0                    0 
400 CG                0.615                6.745               35.175                    0                    0                    0                    0 
401 CG                0.615                1.065               38.525                    0                    0                    0                    0 
402 CG                0.615                3.905               38.525                    0                    0                    0                    0 
403 CG                1.845                1.775               38.525                    0                    0                    0                    0 
404 CG                1.845                3.195               38.525                    0                    0                    0                    0 
405 CG                3.074                1.065               38.525                    0                    0                    0                    0 
406 CG                3.074                3.905               38.525                    0                    0                    0                    0 
407 CG                4.304                1.775               38.525                    0                    0                    0                    0 
408 CG                4.304                3.195               38.525                    0                    0                    0                    0 
409 CG                5.534                1.065               38.525                    0                    0                    0                    0 
410 CG                5.534                3.905               38.525                    0                    0                    0                    0 
411 CG                6.764                1.775               38.525                    0                    0                    0                    0 
412 CG                6.764                3.195               38.525                    0                    0                    0                    0 
413 CG                7.993                1.065               38.525                    0                    0                    0                    0 
414 CG                7.993                3.905               38.525                    0                    0                    0                    0 
415 CG                9.223                1.775               38.525                    0                    0                    0                    0 
416 CG                9.223                3.195               38.525                    0                    0                    0                    0 
417 CG                0.615                5.325               38.525                    0                    0                    0                    0 
418 CG                0.615                8.165               38.525                    0                    0                    0                    0 
419 CG                1.845                6.035               38.525                    0                    0                    0                    0 
420 CG                1.845                7.455               38.525                    0                    0                    0                    0 
421 CG                3.074                5.325               38.525                    0                    0                    0                    0 
422 CG                3.074                8.165               38.525                    0                    0                    0                    0 
423 CG                4.304                6.035               38.525                    0                    0                    0                    0 
424 CG                4.304                7.455               38.525                    0                    0                    0                    0 
425 CG                5.534                5.325               38.525                    0                    0                    0                    0 
426 CG                5.534                8.165               38.525                    0                    0                    0                    0 
427 CG                6.764                6.035               38.525                    0                    0                    0                    0 
428 CG                6.764                7.455               38.525                    0                    0                    0                    0 
429 CG                7.993                5.325               38.525                    0                    0                    0                    0 
430 CG                7.993                8.165               38.525                    0                    0                    0                    0 
431 CG                9.223                6.035               38.525                    0                    0                    0                    0 
432 CG                9.223                7.455               38.525                    0                    0                    0                    0 
