# Energy in atomic unit (1 Eh = 2625.499640 kJ/mol)
# -------------------------------------------------
# step         Hamiltonian             Total energy           Kinetic energy         Potential energy       Thermostat energy      External field energy
       0 -1.382049957653531E+002 -1.382049957653531E+002  8.914974225043002E+000 -1.471199699903962E+002  0.000000000000000E+000  0.000000000000000E+000
       1 -1.382050776539461E+002 -1.382050776539461E+002  9.100782228560369E+000 -1.473058598825065E+002  0.000000000000000E+000  0.000000000000000E+000
