# Energy in atomic unit (1 Eh = 2625.499640 kJ/mol)
# -------------------------------------------------
# step         Total energy           Potential energy       External field energy
      0 -1.500597211229937E+001  -1.545120644536534E+001  -1.321298712057870E+000 
