# Energy in atomic unit (1 Eh = 2625.499640 kJ/mol)
# -------------------------------------------------
# step         Hamiltonian             Total energy           Kinetic energy         Potential energy        Thermostat energy    External field energy 
       0 -6.311049507998550E+001 -6.311049507998550E+001  3.641040389532901E+000 -6.675153546951840E+001  0.000000000000000E+000  0.000000000000000E+000
