# Energy in atomic unit (1 Eh = 2625.499640 kJ/mol)
# -------------------------------------------------
# step         Total energy            Coulomb energy         Thomas-Fermi energy
      0 -1.596647543124281E-002  -2.108351290000068E-002   3.701473168587215E-003
