LAMMPS data file
 3 atoms
 2 atom types
 -100 100 xlo xhi
 -100 100 ylo yhi
 -200 200 zlo zhi

 Masses

1    12.01070000 # CAB 
2    12.01000000 # CG  

 Atoms

1 1   1     1.0     0.0  0.0  0.0
2 81  2     1.0     0.0  0.0 -13.5
3 82  2     -1.0     0.0  0.0  13.5
