LAMMPS data file via write_data, version 16 Mar 2018, timestep = 50000

216 atoms
2 atom types

-3.6981923812518023e+00 1.7798693381161936e+01 xlo xhi
-3.6981923812518023e+00 1.7798693381161936e+01 ylo yhi
-3.6981923812518023e+00 1.7798693381161936e+01 zlo zhi

Masses

1 35.453
2 22.9898

Atoms # full

1 1 2 1.0000000000000000e+00 -2.4180502519337459e+00 5.9605936709035596e+00 -2.2206850113168257e+00 0 0 0
23 1 2 1.0000000000000000e+00 -2.3425674525458113e+00 4.4014382237250960e-01 -1.9635578992460367e+00 1 0 0
206 1 1 -1.0000000000000000e+00 5.6876182492195415e-01 -2.2094051328428872e+00 1.5107241677931240e+00 0 1 0
79 1 2 1.0000000000000000e+00 -1.8539075136950132e+00 -1.9557637688547860e+00 8.0367168233754882e-01 1 -1 0
34 1 2 1.0000000000000000e+00 3.2088485846581021e+00 -2.0834671741054041e+00 -3.7932048527036646e-02 0 1 1
123 1 1 -1.0000000000000000e+00 -1.6644941678844134e+00 3.2909943288290000e+00 -2.6742797346452529e+00 0 1 0
36 1 2 1.0000000000000000e+00 2.3148534049931389e+00 1.0486549819658793e+00 -3.2316706060012752e+00 0 0 1
82 1 2 1.0000000000000000e+00 5.9274732943829544e+00 1.9708286397391532e+00 -3.5557405398036397e+00 1 0 0
171 1 1 -1.0000000000000000e+00 4.5180404053817256e+00 8.4304521016319622e-01 -1.1297711094436080e+00 0 1 0
5 1 2 1.0000000000000000e+00 5.7029498619057115e+00 1.8634267091896524e+00 5.4097842287892322e+00 -1 0 0
104 1 2 1.0000000000000000e+00 1.8197142616507671e+00 -3.4491282168183046e+00 3.5770641493082502e+00 0 0 1
168 1 1 -1.0000000000000000e+00 3.6172587294163598e+00 6.1035280279142885e+00 3.2012069458492382e-01 0 0 1
187 1 1 -1.0000000000000000e+00 2.6350222618259931e+00 2.4927562539766397e+00 4.6530988679921474e+00 1 0 0
115 1 1 -1.0000000000000000e+00 5.9851618171652383e+00 -1.7161538996215298e+00 1.1267579085428561e+00 0 0 0
106 1 2 1.0000000000000000e+00 3.6722043552219432e+00 5.1751201445059802e+00 5.0056992952441970e+00 1 0 1
74 1 2 1.0000000000000000e+00 4.7357739632514537e+00 3.6505056719185962e+00 1.4126761407013357e+00 0 0 0
125 1 1 -1.0000000000000000e+00 5.1211632531103142e+00 -3.3157946353441643e+00 -2.8424793129019665e+00 -1 0 1
201 1 1 -1.0000000000000000e+00 1.3813871427890989e-01 -6.9611170373302311e-01 -2.7553128374530340e+00 0 0 0
193 1 1 -1.0000000000000000e+00 6.5730308445395913e+00 4.4165824930266169e+00 4.5187784161484466e+00 0 0 0
133 1 1 -1.0000000000000000e+00 -3.3861700910940158e+00 -2.1193293651272018e+00 -1.6272334193662541e+00 0 1 0
141 1 1 -1.0000000000000000e+00 -8.9757336560102408e-01 -3.3668413314386298e+00 6.5086577597497621e+00 0 1 0
131 1 1 -1.0000000000000000e+00 1.0509251584117996e+00 -5.7406707128993872e-01 9.3470107972983900e+00 0 0 0
45 1 2 1.0000000000000000e+00 -4.3893719148238342e-01 4.8918670936504327e-01 7.3115028506083073e+00 0 0 0
128 1 1 -1.0000000000000000e+00 5.0911826290233719e+00 -3.3493325675326422e+00 1.3344480065555533e+01 0 1 0
121 1 1 -1.0000000000000000e+00 5.5524830642766361e+00 4.5959293821072613e+00 1.6637426766138294e+01 -1 0 -1
145 1 1 -1.0000000000000000e+00 6.2085639542448021e+00 7.3066904655420739e-01 1.1566066268109971e+01 -1 0 -1
94 1 2 1.0000000000000000e+00 5.6007595349247961e+00 -1.0986952683878108e+00 9.3525304025387399e+00 0 1 0
9 1 2 1.0000000000000000e+00 -9.5770638167455946e-01 -1.4900885988360817e+00 1.6284761083791661e+01 0 0 0
109 1 1 -1.0000000000000000e+00 -6.6897208964212407e-01 3.1448991071051156e+00 7.8840170644409255e+00 0 0 0
13 1 2 1.0000000000000000e+00 1.6194059377743351e+00 3.8845626497515147e+00 9.9806343025877435e+00 0 0 0
143 1 1 -1.0000000000000000e+00 4.1103761114401811e+00 4.6434482900437022e+00 8.2211326250695649e+00 0 0 0
20 1 2 1.0000000000000000e+00 5.4161118080382167e+00 2.4712181873643813e+00 1.3765040686092837e+01 0 1 0
205 1 1 -1.0000000000000000e+00 1.6670918050480878e+00 -2.0206870590180390e+00 1.5054144092513084e+01 0 1 -1
105 1 2 1.0000000000000000e+00 9.4208754009997264e-01 -2.1309672261383694e-01 1.2948795102551966e+01 1 1 0
157 1 1 -1.0000000000000000e+00 2.7307242932449638e+00 1.8681574967116870e+00 1.5823185734656365e+01 0 0 -1
154 1 1 -1.0000000000000000e+00 3.2330122231656322e-01 2.7667737112065689e+00 1.1940190434507389e+01 1 0 0
153 1 1 -1.0000000000000000e+00 4.0302309143796125e+00 4.2783498821077997e+00 1.2530215505878836e+01 0 0 1
165 1 1 -1.0000000000000000e+00 -2.7691415136973863e+00 -8.3239015184865250e-01 9.0581922766049043e+00 1 0 0
38 1 2 1.0000000000000000e+00 3.9789063795624653e+00 -1.5307825796331094e+00 1.6829987117561032e+01 0 0 -1
68 1 2 1.0000000000000000e+00 -2.3504257147236238e+00 3.7077326707690421e+00 1.6383966982153417e+01 0 1 -1
61 1 2 1.0000000000000000e+00 5.8482985798639238e+00 5.1189312237981550e+00 1.0483293564252346e+01 -1 1 0
32 1 2 1.0000000000000000e+00 1.7633089047328632e+00 3.5782694579874610e+00 1.4074796257931350e+01 0 1 0
146 1 1 -1.0000000000000000e+00 -2.0543537638306875e+00 -2.1118191636232586e-01 1.3195318540583783e+01 0 0 0
99 1 2 1.0000000000000000e+00 -1.6611050100843561e+00 4.3892506909268452e+00 1.0582433390585663e+01 1 1 -1
161 1 1 -1.0000000000000000e+00 -2.5283760365965136e+00 4.7551976082939333e+00 1.3438931358733560e+01 0 0 -1
198 1 1 -1.0000000000000000e+00 8.0279269938364095e-02 6.8158398571500580e+00 1.0287207194230263e+01 0 0 0
40 1 2 1.0000000000000000e+00 1.5055423372314491e-01 -3.2079859748312307e+00 9.1226909358940134e+00 1 0 -1
163 1 1 -1.0000000000000000e+00 1.1626661725119494e+00 6.5799712000932438e+00 1.4832763693412124e+01 0 0 0
78 1 2 1.0000000000000000e+00 -3.5712227418593914e+00 -2.4022765835921751e+00 1.1425450143456350e+01 1 1 0
100 1 2 1.0000000000000000e+00 -3.0573199985277073e+00 2.3410043080077179e+00 8.2000255104551805e+00 2 0 0
108 1 2 1.0000000000000000e+00 2.5950502990710724e+00 6.3933058736739667e+00 1.1979163207861470e+01 2 0 1
17 1 2 1.0000000000000000e+00 6.8635432407142556e+00 6.9359399821447347e+00 1.5873805248983759e+01 0 0 -1
67 1 2 1.0000000000000000e+00 -3.6592748084718174e-01 6.0570780987144364e+00 7.5721852212939753e+00 1 0 0
117 1 1 -1.0000000000000000e+00 -2.9333255154924882e+00 8.8889451773301182e+00 1.3528135031289945e+00 1 0 1
73 1 2 1.0000000000000000e+00 -1.1031764907834756e+00 1.1452437650214128e+01 -3.2158761547980856e+00 1 -1 1
160 1 1 -1.0000000000000000e+00 -4.5269913579644161e-02 1.3044829219666608e+01 -5.1702508287087490e-01 1 0 0
190 1 1 -1.0000000000000000e+00 1.6249968993010517e+00 1.2692589677070456e+01 5.9343643501195462e+00 0 -1 1
185 1 1 -1.0000000000000000e+00 4.0118565814454170e+00 1.6590169165635629e+01 4.6829201834838825e+00 1 -1 0
37 1 2 1.0000000000000000e+00 -4.7556006681103824e-02 9.2144292117082252e+00 4.4609579655600884e-01 0 0 0
85 1 2 1.0000000000000000e+00 -2.7248985671562078e+00 1.6649483963027087e+01 -1.8194617183142605e+00 1 -1 1
178 1 1 -1.0000000000000000e+00 -2.4734357621777754e+00 9.5997594241395632e+00 6.7830958751897636e+00 0 0 1
83 1 2 1.0000000000000000e+00 4.2027966515079509e+00 1.2458629491841032e+01 -1.8675796152611273e+00 1 -1 1
113 1 1 -1.0000000000000000e+00 3.5382454788651687e+00 1.4820332451477276e+01 1.6700463465973642e-01 0 -1 0
10 1 2 1.0000000000000000e+00 3.1026344277840172e+00 9.5262494472330008e+00 4.2213156096307660e+00 1 0 0
204 1 1 -1.0000000000000000e+00 5.9530957917447935e+00 1.0680970424237200e+01 -4.0088545251911412e-01 1 0 0
80 1 2 1.0000000000000000e+00 4.7057445784932028e-01 1.5617850852656995e+01 5.4004527948967951e-01 0 0 0
148 1 1 -1.0000000000000000e+00 5.8342746233814839e+00 1.2260728888644008e+01 4.1558477172162398e+00 0 0 -1
25 1 2 1.0000000000000000e+00 -3.4482976151591904e-01 1.0926310331668040e+01 5.2742901157092001e+00 1 0 0
215 1 1 -1.0000000000000000e+00 -4.2847762037846593e-01 7.8127424881554290e+00 -2.0702681908176097e+00 0 1 1
147 1 1 -1.0000000000000000e+00 1.3016331354312651e+00 8.1586674340156247e+00 5.9103181958433835e+00 1 0 0
172 1 1 -1.0000000000000000e+00 4.4089939878832496e-01 1.0465177236380974e+01 2.7719055802671630e+00 0 0 0
60 1 2 1.0000000000000000e+00 3.1287113647333715e+00 1.4180164864710031e+01 3.6850765063145277e+00 0 -1 1
33 1 2 1.0000000000000000e+00 -2.0346115616360620e+00 1.6595129111771264e+01 3.6624836020510529e+00 0 0 1
189 1 1 -1.0000000000000000e+00 -1.9845436165800379e+00 1.6343599642116544e+01 1.0262395045802508e+00 1 -1 1
48 1 2 1.0000000000000000e+00 -2.2819406769583077e+00 1.1612902375504012e+01 1.1903508304983597e+00 1 -1 0
118 1 1 -1.0000000000000000e+00 3.6710052614823407e-01 1.5555910922137643e+01 3.3138636330223288e+00 -1 0 0
126 1 1 -1.0000000000000000e+00 5.7529726518047095e+00 7.9252772145150843e+00 5.5795112013277564e+00 0 0 1
19 1 2 1.0000000000000000e+00 4.5841581297229705e-02 1.5174310337880852e+01 6.5555617363054104e+00 0 -1 0
103 1 2 1.0000000000000000e+00 4.8915412688630369e+00 7.8527281981965107e+00 -1.3106590460777077e+00 0 0 0
72 1 2 1.0000000000000000e+00 6.4341739625135546e+00 1.6556446757052612e+01 -1.1049966029468374e+00 -1 -1 1
202 1 1 -1.0000000000000000e+00 -3.5144293041825492e+00 1.4440118358381406e+01 -3.0633856973895193e+00 1 0 1
155 1 1 -1.0000000000000000e+00 -2.6229874790509347e+00 1.3692908812876174e+01 6.9359249254062210e+00 1 -1 0
213 1 1 -1.0000000000000000e+00 -5.8773250594510928e-01 1.1720956206918958e+01 1.1911158581766449e+01 1 0 1
194 1 1 -1.0000000000000000e+00 1.5307111587430375e+00 1.1994170378497868e+01 1.7105490839693015e+01 1 0 0
214 1 1 -1.0000000000000000e+00 -1.0574418951882101e+00 1.5965907797697016e+01 1.3670696926209054e+01 1 0 0
130 1 1 -1.0000000000000000e+00 5.4279945441500654e+00 1.7717141131039860e+01 8.7204256650554282e+00 0 0 0
11 1 2 1.0000000000000000e+00 2.4654237643466166e+00 1.4792232010810361e+01 1.7551344951565515e+01 0 1 0
162 1 1 -1.0000000000000000e+00 -2.7514040861693712e-01 1.6785144251118894e+01 1.7241617067916305e+01 0 0 0
15 1 2 1.0000000000000000e+00 1.8482681935460921e+00 1.3223768108070677e+01 9.4250506426757674e+00 -1 0 -1
57 1 2 1.0000000000000000e+00 -2.0078598048229286e+00 1.4494052248906945e+01 1.1456899681587906e+01 1 0 1
110 1 1 -1.0000000000000000e+00 5.8218036919432148e+00 8.9719454350753640e+00 1.7613527691903638e+01 -1 0 -1
66 1 2 1.0000000000000000e+00 6.0634162568048922e+00 1.7126239104494630e+01 1.6033168948839503e+01 0 0 0
139 1 1 -1.0000000000000000e+00 6.5932701534953804e+00 1.4266728587480911e+01 1.1987692156209542e+01 0 0 -1
16 1 2 1.0000000000000000e+00 6.5773777484126601e+00 1.6589793231021808e+01 1.1099246111605671e+01 0 -1 0
191 1 1 -1.0000000000000000e+00 2.9948184742323267e+00 1.4352180791153247e+01 1.4751492027155479e+01 0 -1 0
101 1 2 1.0000000000000000e+00 -2.3518090673360668e+00 1.5463207061749054e+01 1.6106284601084411e+01 1 0 0
31 1 2 1.0000000000000000e+00 -1.5241444001392015e+00 7.5527788314181858e+00 1.3719982859411434e+01 -1 0 0
158 1 1 -1.0000000000000000e+00 -2.6746759995318437e+00 1.1771774716269853e+01 1.5811401650066506e+01 0 0 0
39 1 2 1.0000000000000000e+00 5.5488618946072368e+00 1.2716069707967565e+01 1.4808091824682858e+01 0 0 -1
129 1 1 -1.0000000000000000e+00 -3.2524672253685831e+00 8.4484761389618210e+00 1.1546831792914984e+01 1 0 -1
179 1 1 -1.0000000000000000e+00 4.1394817236638684e+00 1.0363297886957572e+01 8.9507963417681520e+00 0 0 0
96 1 2 1.0000000000000000e+00 1.7333676174102077e+00 7.7206568012220931e+00 1.7547891679210714e+01 1 0 0
46 1 2 1.0000000000000000e+00 -1.3396396978015765e+00 9.6426503702710740e+00 9.5683862240177628e+00 0 -1 0
84 1 2 1.0000000000000000e+00 5.0299853213154044e-01 1.2680382594340438e+01 1.4507147631712320e+01 0 0 0
21 1 2 1.0000000000000000e+00 4.0558414749085632e+00 7.9153421341579158e+00 7.8934647271917173e+00 0 0 0
138 1 1 -1.0000000000000000e+00 5.9254485899380800e+00 1.3575570744731381e+01 1.7639500702830112e+01 -1 0 -1
196 1 1 -1.0000000000000000e+00 4.8013790616061769e-01 1.5705160902098045e+01 9.7074139979271603e+00 1 0 0
71 1 2 1.0000000000000000e+00 1.1158837338184124e+00 1.7027250614785487e+01 1.4309304202533882e+01 0 0 0
28 1 2 1.0000000000000000e+00 6.4570951002197248e+00 1.1650628007337756e+01 9.7069527466543040e+00 -1 1 -1
166 1 1 -1.0000000000000000e+00 8.7640861107858576e+00 1.2375332703242812e+00 3.6162044513641951e+00 0 2 0
35 1 2 1.0000000000000000e+00 9.5575671237278979e+00 -1.4317709825808853e+00 1.8192341470785427e+00 0 1 1
136 1 1 -1.0000000000000000e+00 9.8691279316215361e+00 -1.8657276735756612e+00 -8.2840726468836379e-01 0 1 0
63 1 2 1.0000000000000000e+00 1.0995099054720718e+01 1.6862911262943809e+00 -2.6508813058686669e+00 0 0 0
58 1 2 1.0000000000000000e+00 1.5156449557551822e+01 -1.9107047330153979e+00 -5.6409195349981189e-01 0 0 0
184 1 1 -1.0000000000000000e+00 1.2197277720809673e+01 3.1029267129877267e+00 -7.0057782694047199e-01 -1 0 0
2 1 2 1.0000000000000000e+00 1.1263792750211776e+01 2.5407385926166572e+00 2.2276194984955628e+00 -1 0 0
119 1 1 -1.0000000000000000e+00 8.5135600933194322e+00 2.4495607947928324e+00 -1.8847873803467994e+00 0 0 2
50 1 2 1.0000000000000000e+00 1.4915686164077149e+01 1.9849072049141618e+00 -2.7662508291300481e+00 -1 0 0
43 1 2 1.0000000000000000e+00 1.4101581536467096e+01 6.2445653202841545e+00 3.9425538644129881e+00 0 0 0
27 1 2 1.0000000000000000e+00 1.6125547040168989e+01 3.0230255613958903e+00 1.9513917158607952e+00 -1 0 -1
164 1 1 -1.0000000000000000e+00 1.6328434486245257e+01 6.1598801784041601e+00 -7.8177132494323742e-01 0 0 0
170 1 1 -1.0000000000000000e+00 1.3388040718695384e+01 -5.5475996940999117e-01 -3.5658894974847968e+00 0 1 1
4 1 2 1.0000000000000000e+00 1.0194055607459974e+01 2.0246266475004209e+00 5.9025830749514361e+00 -1 0 0
167 1 1 -1.0000000000000000e+00 1.0576126024835089e+01 -2.9284737387440032e+00 4.5391513703581916e+00 0 0 0
200 1 1 -1.0000000000000000e+00 1.6575964042995444e+01 4.7018794525522978e+00 4.0853195005172731e+00 0 0 0
140 1 1 -1.0000000000000000e+00 1.4589831079421101e+01 1.1962228190541220e+00 3.6628718822897297e+00 -1 1 0
89 1 2 1.0000000000000000e+00 1.3024311308279307e+01 -1.9752326381407059e+00 3.5071903472350967e+00 0 1 -1
203 1 1 -1.0000000000000000e+00 1.1864737286644115e+01 4.2737646311620878e+00 4.6385802759153716e+00 0 0 0
53 1 2 1.0000000000000000e+00 7.8185982685911224e+00 -2.9911602501280221e-02 -9.9258705836151040e-01 1 0 1
56 1 2 1.0000000000000000e+00 1.0473851829192137e+01 6.1159425596615051e+00 3.1655810102792321e+00 0 0 0
7 1 2 1.0000000000000000e+00 1.3734198847406764e+01 2.8809272868329936e+00 6.3354950415439193e+00 0 0 0
65 1 2 1.0000000000000000e+00 1.3520128281256477e+01 5.4221586811245306e+00 -1.2118006377977111e+00 -1 0 0
90 1 2 1.0000000000000000e+00 8.0702772096097295e+00 5.9590890690629568e+00 6.2317941673066750e+00 0 1 0
192 1 1 -1.0000000000000000e+00 1.6851489690782742e+01 1.0357647312820584e+00 6.0874992458511801e-02 0 0 1
69 1 2 1.0000000000000000e+00 7.0591911009253128e+00 -2.8775598255534280e+00 4.0163028800764549e+00 0 1 0
88 1 2 1.0000000000000000e+00 1.7647124572087378e+01 7.0349943066686471e+00 4.6958343492837056e+00 0 0 0
54 1 2 1.0000000000000000e+00 1.2740912964710459e+01 -3.4949648764370118e+00 -3.1541021916110132e+00 0 0 1
188 1 1 -1.0000000000000000e+00 1.0145189593971624e+01 -6.7214351547697460e-01 1.2728955571202006e+01 1 0 -1
3 1 2 1.0000000000000000e+00 8.4715707879668436e+00 1.9350602448194287e+00 1.0216037803111922e+01 0 0 -1
169 1 1 -1.0000000000000000e+00 1.2864820067069717e+01 4.6341127545799274e+00 8.1164492890114062e+00 0 0 1
87 1 2 1.0000000000000000e+00 1.1061189755168398e+01 -2.7488695402725991e+00 7.6632882787148109e+00 0 1 0
30 1 2 1.0000000000000000e+00 1.3299722939368971e+01 -1.8582268371499433e-01 1.0807003286866877e+01 0 0 -1
95 1 2 1.0000000000000000e+00 7.6741120143044341e+00 -8.7559181311055978e-01 1.3594735280356858e+01 0 0 0
51 1 2 1.0000000000000000e+00 1.1094070348823369e+01 -3.2299667052393666e+00 1.3907835637244119e+01 -1 0 -1
209 1 1 -1.0000000000000000e+00 8.4947564220718554e+00 4.8292609343045214e+00 8.6805601463265454e+00 0 0 0
199 1 1 -1.0000000000000000e+00 9.3131688055751471e+00 3.6235167483380852e+00 1.2550316621180439e+01 1 -1 -1
70 1 2 1.0000000000000000e+00 9.7017449998770342e+00 5.9175129820518944e+00 1.1352727032824397e+01 0 1 0
132 1 1 -1.0000000000000000e+00 1.7420677503338425e+01 4.8106615596199553e-01 1.6246875918463992e+01 0 0 0
64 1 2 1.0000000000000000e+00 1.4576302090060585e+01 4.7852796917308353e+00 1.0390005713758839e+01 -1 0 -1
174 1 1 -1.0000000000000000e+00 1.2596655548427636e+01 5.7195927577596493e+00 1.2425467494965782e+01 0 0 -1
144 1 1 -1.0000000000000000e+00 1.6939710814264203e+01 3.5335085934949806e+00 1.0033453008570593e+01 -1 0 0
181 1 1 -1.0000000000000000e+00 7.3846342795470505e+00 8.3715209972008076e-01 1.5555307746295682e+01 0 -1 -1
180 1 1 -1.0000000000000000e+00 8.3901807431426363e+00 -3.1717287154781286e+00 1.5078790098493217e+01 0 0 0
18 1 2 1.0000000000000000e+00 1.2085723058065540e+01 3.2043071178913447e+00 1.3506359381712601e+01 -1 0 -1
212 1 1 -1.0000000000000000e+00 1.4572625257214058e+01 1.6957066699303152e+00 1.2456765352032198e+01 0 1 1
91 1 2 1.0000000000000000e+00 1.4829178447322365e+01 2.7212960204026215e-01 1.5234629824107913e+01 1 1 0
142 1 1 -1.0000000000000000e+00 1.1800806437362695e+01 3.0993185283290874e+00 1.6442852476066516e+01 -1 1 1
150 1 1 -1.0000000000000000e+00 1.7469498932961912e+01 5.6340612390179778e+00 1.6932854074986782e+01 -1 -1 -1
62 1 2 1.0000000000000000e+00 9.3041564046204872e+00 3.7037283805931329e+00 1.5402369378863170e+01 0 1 -1
124 1 1 -1.0000000000000000e+00 1.4534206158907518e+01 -1.8248057747775797e+00 1.3318789082487879e+01 -1 0 0
197 1 1 -1.0000000000000000e+00 9.3920635723131785e+00 6.3965932507510725e+00 1.5424343916507334e+01 0 0 0
52 1 2 1.0000000000000000e+00 1.2938583336490387e+01 6.5728855898172700e+00 1.5184021162796073e+01 0 0 -1
152 1 1 -1.0000000000000000e+00 7.6226780122199198e+00 8.8549589861600797e-01 7.1625766202658836e+00 0 0 0
12 1 2 1.0000000000000000e+00 1.7672287867283536e+01 1.7741604081061917e+00 1.3322715749391746e+01 -1 0 0
112 1 1 -1.0000000000000000e+00 1.2865280909240555e+01 -8.7400657217777677e-03 7.9028608477206133e+00 0 0 -1
134 1 1 -1.0000000000000000e+00 1.0262824296455998e+01 7.3268835720717558e+00 5.6390793448443510e+00 -1 0 0
207 1 1 -1.0000000000000000e+00 1.0639095705801951e+01 1.0494017694898089e+01 -2.3156795850695335e+00 0 0 0
208 1 1 -1.0000000000000000e+00 9.6812067410272409e+00 1.5241096301702049e+01 -2.1795525745401667e+00 0 0 0
41 1 2 1.0000000000000000e+00 7.9126476310754690e+00 1.1039853784889011e+01 -3.1317740298869317e+00 0 0 1
173 1 1 -1.0000000000000000e+00 1.6021619875376068e+01 1.0243057565505845e+01 -2.1175505782091535e+00 0 0 1
93 1 2 1.0000000000000000e+00 1.1515593778942497e+01 1.1805061269967048e+01 5.1919003438669336e+00 0 0 1
176 1 1 -1.0000000000000000e+00 1.3266735753602349e+01 1.7775758745509819e+01 1.4510980991279787e-01 0 0 0
156 1 1 -1.0000000000000000e+00 1.2710952991703818e+01 7.4889340878467863e+00 2.1450859882110427e+00 0 -1 0
47 1 2 1.0000000000000000e+00 7.7878746695927301e+00 1.4978698611408985e+01 6.6744937991321436e+00 0 -1 1
97 1 2 1.0000000000000000e+00 1.2225045256439333e+01 1.5089551568884024e+01 -7.1422395946430794e-01 0 0 0
211 1 1 -1.0000000000000000e+00 1.3594017288320336e+01 1.3615377185411125e+01 -3.5484965313959633e+00 -1 0 1
75 1 2 1.0000000000000000e+00 1.6580917358932858e+01 1.1303601954366526e+01 5.5854729615681311e+00 -1 -1 0
149 1 1 -1.0000000000000000e+00 1.3816048192051868e+01 1.3834386987105789e+01 1.2040816003746995e+00 0 -1 1
86 1 2 1.0000000000000000e+00 9.4581135105293868e+00 8.1014505284698828e+00 -3.6173555290274857e+00 1 0 -1
98 1 2 1.0000000000000000e+00 1.4485272356775210e+01 1.2049860498931833e+01 -6.3160243379916736e-01 0 0 0
127 1 1 -1.0000000000000000e+00 1.5860234677435548e+01 1.7439450636935362e+01 4.1563494033958142e+00 0 -1 0
151 1 1 -1.0000000000000000e+00 1.5164647077704531e+01 8.3203778607501668e+00 5.1662850832454783e+00 0 0 0
6 1 2 1.0000000000000000e+00 7.5407138314445046e+00 1.0510546744463758e+01 5.7141930763023963e+00 0 -1 -1
195 1 1 -1.0000000000000000e+00 9.2531281726370800e+00 1.1855781047613469e+01 3.7789048522744966e+00 0 0 0
44 1 2 1.0000000000000000e+00 7.2626152149034962e+00 1.2278478833060477e+01 2.0464120267261974e+00 -1 -1 0
116 1 1 -1.0000000000000000e+00 1.7751422921009457e+01 1.2909378091975059e+01 3.0423383612010739e+00 0 0 0
49 1 2 1.0000000000000000e+00 1.5966899894117054e+01 8.5645906987030020e+00 5.2616852952463244e-01 0 0 0
26 1 2 1.0000000000000000e+00 1.6284573736605708e+01 1.5352464041966178e+01 2.5147335225690606e+00 -1 0 0
122 1 1 -1.0000000000000000e+00 1.4055940966717861e+01 1.2490639075539262e+01 6.6076081440212047e+00 -1 0 0
183 1 1 -1.0000000000000000e+00 1.3329697592824362e+01 7.7417536342234587e+00 -3.6491138273446309e+00 1 -1 0
216 1 1 -1.0000000000000000e+00 1.0320694781945578e+01 1.5912353528269856e+01 7.0454630226753929e+00 -1 0 0
182 1 1 -1.0000000000000000e+00 7.2465971536690876e+00 7.8697447668013680e+00 1.2601923276136906e+01 0 0 0
77 1 2 1.0000000000000000e+00 1.0769225844656777e+01 1.4919959317675529e+01 9.6786091750812453e+00 0 -1 0
175 1 1 -1.0000000000000000e+00 1.2596353928765643e+01 1.6346297829886332e+01 1.5452001728459505e+01 0 0 0
102 1 2 1.0000000000000000e+00 1.7729286012853450e+01 1.7190234210418168e+01 7.3591053668885618e+00 -1 0 0
81 1 2 1.0000000000000000e+00 1.6141452875610057e+01 1.2684096221329019e+01 1.7612500535773172e+01 0 0 0
210 1 1 -1.0000000000000000e+00 1.6365006228565356e+01 1.7190251228228036e+01 1.0098810515960665e+01 0 0 0
42 1 2 1.0000000000000000e+00 1.2589404774360380e+01 1.1312484545499778e+01 1.0460322221769394e+01 -1 0 0
186 1 1 -1.0000000000000000e+00 1.3196890386306391e+01 8.8222936420556177e+00 1.0259152525007364e+01 0 -1 0
114 1 1 -1.0000000000000000e+00 1.6435530436532773e+01 1.4652319721141270e+01 1.3936658533927044e+01 -1 -1 0
59 1 2 1.0000000000000000e+00 1.2501772218494681e+01 7.4966630964689056e+00 7.3053850431794647e+00 0 0 0
29 1 2 1.0000000000000000e+00 1.3765994289313346e+01 1.4020684552285102e+01 1.5292645687808704e+01 -1 0 0
92 1 2 1.0000000000000000e+00 1.0809418232619128e+01 1.4117716841647040e+01 1.7343506689199149e+01 0 -1 -1
24 1 2 1.0000000000000000e+00 1.5106233161636125e+01 1.6858449077761456e+01 1.2561190977730279e+01 0 0 0
120 1 1 -1.0000000000000000e+00 1.1437360010265508e+01 1.3534728196530248e+01 1.1915183086653403e+01 0 0 -1
159 1 1 -1.0000000000000000e+00 9.6473637713111504e+00 1.6812406839997443e+01 1.1300114352794422e+01 0 -1 0
107 1 2 1.0000000000000000e+00 9.0468835058490047e+00 1.4051276401720541e+01 1.3322870557312271e+01 0 1 0
137 1 1 -1.0000000000000000e+00 9.3499074303785772e+00 1.2636702548421139e+01 1.5577773043136759e+01 0 0 -1
135 1 1 -1.0000000000000000e+00 1.4117721254447206e+01 1.0922997006559839e+01 1.5025292298708347e+01 0 0 0
8 1 2 1.0000000000000000e+00 1.6321771339446776e+01 8.3378238374099691e+00 1.7352309559000627e+01 -1 0 0
111 1 1 -1.0000000000000000e+00 1.6183323125454386e+01 1.1181827756660246e+01 1.0770432866387925e+01 -1 0 -1
55 1 2 1.0000000000000000e+00 1.5529932040467886e+01 8.6528448877539006e+00 1.1434005841518674e+01 -1 -1 -1
14 1 2 1.0000000000000000e+00 1.7213284344886027e+01 1.1113712522237705e+01 1.3137908472427439e+01 -1 -1 -1
177 1 1 -1.0000000000000000e+00 8.3764364612059516e+00 1.2377226536526740e+01 7.9055435391090931e+00 -1 -1 0
22 1 2 1.0000000000000000e+00 1.6298912365736328e+01 1.3123166979267049e+01 8.6242197776473226e+00 -1 0 -1
76 1 2 1.0000000000000000e+00 1.2976545354003592e+01 1.0722495812016112e+01 1.7485019145438823e+01 1 0 -1

Velocities

1 -1.6552107067094250e-03 1.5266562723590373e-02 3.6432198813855414e-03
23 -1.4976849706932059e-03 2.8244404187996110e-03 3.2081680902672823e-03
206 3.5028574103964298e-03 1.2081253709534761e-02 -2.5221757819096314e-03
79 5.2079371520781584e-03 1.6316383929933901e-02 6.9485224122262492e-03
34 -3.9883200406455062e-04 -4.8020193432247440e-04 -3.0045419942940649e-03
123 -8.7323919412011126e-03 9.1615634695335450e-03 3.6761548303722415e-03
36 -8.8307195275576355e-03 -7.3836571035427803e-03 -7.9085363967379418e-03
82 -5.7539049068194735e-03 -3.2283254141091838e-04 -3.7707019835331486e-03
171 -1.1367555857833360e-02 -3.1398058168881802e-03 -3.8784352735801897e-03
5 -6.8799610436274016e-03 2.6700747233661991e-03 4.7114890714845415e-03
104 4.1197836230876320e-03 -8.5818157617380854e-03 -3.0261038841480278e-03
168 -5.8477637541599669e-03 -1.9921550114338836e-03 2.5743852619482011e-04
187 6.5157352300500952e-03 1.2741355697242855e-02 -1.5112203013781255e-03
115 -8.3311301054273380e-04 -1.1786949507474078e-03 -6.1401600906421496e-03
106 1.2881950742446100e-03 1.0432563206445667e-03 1.5824972990782602e-03
74 -1.2305429221582669e-03 5.1900454721692220e-03 3.6855120932176573e-03
125 -4.6828700299001314e-04 5.9966161738983087e-03 1.1171914684594672e-02
201 -6.5930620919014468e-03 8.2865842395623522e-03 1.5534698945738718e-02
193 -4.6498973550649038e-03 -2.1801810804781309e-03 -1.5950608223018747e-03
133 -2.5739768321953000e-03 1.0580379008403746e-02 -6.7031726288494476e-03
141 -4.3075090336001393e-03 1.6014449856372494e-03 -2.1408738282656416e-03
131 3.5867325606170957e-03 -4.4232731292877577e-03 -3.8892433930904960e-03
45 2.6287862579498578e-03 -3.4141835304009661e-03 -1.0604401856829635e-03
128 4.5661254882224485e-03 4.3663211330728308e-03 1.1137360455838795e-03
121 4.0962484824311959e-03 -4.3044203866590735e-03 1.3678804386150678e-03
145 -7.0662491655221361e-03 5.8304801196656193e-03 5.3703958408214778e-04
94 8.4970544083116419e-03 6.1871860016915704e-03 -1.8569380129794668e-02
9 -3.6952467941779787e-03 -5.1543947011196056e-03 1.0751875591847992e-03
109 1.2511479898261138e-03 4.5714928625146438e-03 -1.2637212878309117e-03
13 -1.1083919002049511e-02 -3.6287901976545913e-03 4.3266110335886268e-03
143 7.3036572352473701e-03 -1.2194050846964724e-02 8.8184471413918098e-03
20 2.0506244180071931e-03 -7.6950478484692575e-03 -6.1029831840621000e-03
205 1.6785595803153709e-03 -6.7074162678687566e-03 7.2661662178827909e-04
105 1.3126611441701902e-02 2.4993231744541242e-03 -3.1156270930649136e-03
157 -1.1380942583867562e-02 9.8639735027313009e-03 3.5260567087316412e-03
154 9.1140207529334902e-05 5.7092323595053654e-03 -3.0683228246282364e-03
153 3.7827195072722771e-03 -1.1951718661930332e-03 -1.0603761474838218e-03
165 7.3102707087361399e-03 -3.8402826526221230e-03 7.3933339329801508e-03
38 5.7857392091850623e-03 7.8993098217979372e-03 -5.3412754069328437e-03
68 1.0945307457231744e-03 -1.6493287249997938e-02 1.9249719574385004e-03
61 2.5758929936451798e-03 -4.0779769034343938e-03 1.0504225034452187e-02
32 4.9295226986615691e-03 2.0471797291028433e-03 1.2072166779835055e-02
146 -3.6039196618482499e-03 3.1770432844264100e-03 -1.0063376888041110e-02
99 2.9456384861508878e-03 -1.3143720201975221e-02 5.4168326204971891e-03
161 -1.2369944268890577e-02 -1.1360245305640552e-03 -9.0830493524350908e-03
198 1.9101846736589584e-04 -6.0938055519683589e-03 1.0518551388009197e-02
40 -2.3015793843331801e-03 8.9433263922751843e-03 2.8947163808099928e-03
163 7.4618262780884667e-03 -1.5757321815725524e-03 6.6397940644086443e-03
78 2.3234350523170513e-03 -1.0743167462977328e-02 -1.0250275076323903e-02
100 1.3314844116090402e-03 1.1598636080723639e-03 7.6528497863080211e-03
108 8.4713252853299472e-03 -8.6623840140640906e-03 2.9731535134363981e-03
17 1.6593169319030480e-02 -1.7753771239015941e-03 -4.7785212605172102e-03
67 1.1322627280476887e-02 -3.4576926387529950e-03 2.3072824460361147e-02
117 1.1256847893313550e-02 -2.4936647914739786e-04 1.2889648794851310e-02
73 -4.0070796882473326e-03 1.6904886921353468e-03 6.5602098620044921e-04
160 -1.7911892608822306e-03 -9.5716939169543658e-03 7.0266677756237452e-03
190 -1.1521867832589498e-03 -5.2683915528156837e-03 -4.5666864853856791e-03
185 -4.6896804295943713e-03 2.6223441462418667e-03 -6.9496269812230182e-03
37 -1.8057829536198263e-03 1.3266134715509727e-02 -7.1604757533055190e-03
85 -1.3881188239021005e-02 3.1993457109550615e-03 -8.9822110509935604e-03
178 3.0836682801963709e-04 1.8455760597591638e-03 -7.2673202545187401e-03
83 -1.9370791379141694e-03 4.6811816998864608e-03 3.3314044817466470e-04
113 -5.9805453290388529e-03 -3.8660639978807493e-03 7.3596473988560528e-03
10 -2.4437223486264261e-03 2.8949360556838086e-04 1.3598428888439095e-03
204 1.2345454906897160e-02 -2.6366070938931277e-03 -5.7819458906552398e-03
80 4.9634924573023782e-03 1.7278551064082218e-03 7.4164135164155433e-03
148 -6.3162607557230490e-03 -5.9197631219992880e-03 -1.5392824646023409e-03
25 2.4365565801804799e-03 -7.1230364111371800e-03 5.0220524231541193e-03
215 2.5724253955833878e-03 5.1012853335601982e-03 -7.0609026814088269e-03
147 6.1819157721572137e-03 -1.9606222972320311e-03 -1.0459549688593183e-03
172 1.3518389720724659e-03 1.2389157441732724e-03 -8.2434520806160623e-04
60 -5.0925591522036088e-04 -6.0408676779719374e-03 -1.1361892620268826e-02
33 1.5174792354879095e-03 -2.7244242319324589e-03 7.1067244209983170e-03
189 -4.5304681940008060e-03 -2.3391084779537143e-03 4.3972590308885501e-03
48 3.0961404631430307e-03 -5.8010525980827406e-03 -3.0978292957225266e-03
118 -1.9692618178566149e-04 -1.6634100936469497e-03 2.1367515649547242e-03
126 -7.2193017042922799e-03 -1.0000309375346399e-02 -3.5285381974514574e-03
19 -7.0224689940343891e-03 -3.8957103149495588e-03 6.9615237506975300e-03
103 3.8233583222783479e-03 3.5142185428285707e-03 1.3633935396451883e-05
72 -5.8087817672370307e-03 -5.5207704486056894e-03 8.2661239363687449e-03
202 9.0486281721219065e-03 -1.9740996181535409e-03 4.3738436726061527e-03
155 -1.5284883500742889e-04 5.6901392540222061e-04 -7.6891036060283977e-03
213 8.9115535634889213e-03 4.1496784597783894e-03 -1.4477592175149098e-03
194 9.4129940609621980e-03 7.3591678728861173e-03 -7.3091210354171779e-03
214 -2.5044339002613333e-03 2.2484672056727064e-03 7.6357616069545982e-03
130 2.0082042332867089e-03 7.6639669111856551e-03 7.3291249877629524e-03
11 -8.7146823814545273e-03 -5.8106371994993003e-03 1.1875388440062192e-02
162 -1.1487456917086431e-02 5.5976489367664953e-04 -8.3937830942604728e-03
15 -1.1206899648344268e-02 -3.0847791932783184e-03 -5.3875082422147717e-03
57 -1.0211138417862060e-03 9.4595008368653644e-03 -3.3192025541753422e-03
110 2.4092420047560591e-03 2.5104645475465454e-03 -3.7814318783291321e-03
66 5.5448166379259613e-03 7.9617945767711112e-03 9.9008840308677255e-03
139 4.2075568432276876e-03 6.3315908962023604e-03 1.9056825995867703e-03
16 2.7319067277164059e-03 3.3484027354537260e-03 -2.0630689729522153e-03
191 -3.0190347677094549e-03 -8.8092635764677532e-03 8.9543299177878306e-04
101 7.7175806661636450e-03 -9.4395846834822109e-03 -7.4083884023936246e-03
31 9.0567794911297472e-03 -6.9264436920896686e-03 -1.0464669084350032e-02
158 6.4957409592394863e-03 -3.2212702877101218e-03 6.3089374341422765e-03
39 4.9086304896510703e-03 -6.8792309372984178e-03 4.2826923926466073e-03
129 -2.2065906539317556e-03 -8.7545903054630555e-03 -7.3044872040558210e-03
179 5.6053059942788473e-03 6.9856146623191902e-03 -2.6734608631556679e-03
96 -2.0057881173038042e-02 -9.4744437570198955e-03 2.6664916357343809e-03
46 2.0778829916232037e-02 8.9623143698640967e-03 3.5273068108555763e-03
84 -3.7506191489874003e-03 -7.1677603319913264e-03 -1.4904960533063986e-03
21 -9.5059415226142543e-03 1.4054790871912195e-02 -2.7646671115939964e-03
138 8.8678712303282801e-03 -3.8921846857371311e-03 5.6924348142221417e-03
196 -6.8787697350823204e-03 2.7145126063002705e-03 -1.3076827555200133e-02
71 1.9999268822504493e-04 2.8190319673492372e-03 4.4602991532846714e-03
28 -8.6731982203199515e-03 -9.9542631803045418e-04 -1.0915187321958264e-03
166 -2.4277379114385727e-03 -1.1038207663003291e-02 1.5096186816082934e-03
35 -5.1561017280542113e-03 6.3566878527688577e-04 1.1597658068473486e-02
136 7.6571717364606732e-04 4.4143218477667957e-03 -4.8701362269972645e-03
63 -4.5345245217762288e-03 1.5039553782813495e-02 1.5244632357397774e-02
58 2.1675306311239990e-02 8.5263108648024090e-03 9.3357316046220242e-03
184 2.9659659052941509e-03 3.6669644369746314e-03 3.4136615148712131e-03
2 -1.4542751240543051e-03 9.5938529021988815e-03 2.4880613465337363e-03
119 -3.0200833339913795e-03 -8.4108031713063421e-03 -3.1150251800971251e-03
50 -6.0018766023657794e-04 2.1841011567623396e-03 4.5236782659166539e-03
43 -4.0491946684016924e-03 6.5035035238913087e-03 6.6683007636643031e-03
27 9.2690055859266807e-03 7.5706498282092198e-04 3.1022736098363798e-03
164 7.0958451011158656e-03 6.3118240749531528e-03 -8.0705053409648071e-03
170 -1.5911853511564161e-04 -1.7725440456420287e-04 -4.4605236219983274e-04
4 9.9000318848582354e-03 -1.4002800426589539e-02 1.6355918096230472e-02
167 -1.7304556429586610e-03 2.9706087450139368e-03 -4.0803279705917014e-04
200 -3.2637553417999314e-03 8.1819937073273983e-03 -7.6899249430807505e-03
140 -6.6765010351901403e-03 6.2536074689279386e-03 -3.2530899341650216e-03
89 6.0204936764723183e-03 -2.8464160858456401e-03 -8.6067803518518563e-03
203 5.0174591282791943e-04 -3.0697156677494744e-03 8.1786032675794755e-03
53 3.8999302917419828e-03 3.1508966295602939e-03 -5.5398339686505253e-03
56 2.1142898409723877e-03 1.8193563040629428e-03 2.6692368061864498e-03
7 3.8873015037080580e-03 7.1698302006565490e-03 3.6208141216575764e-03
65 -1.7709695546299916e-02 -1.2659624412990030e-03 6.7061887903889185e-03
90 6.9043350186677082e-03 -1.9106952584532991e-03 -2.3594844905348799e-03
192 -1.9379241168018771e-03 -9.6309363271459905e-03 -4.2983705470903385e-03
69 -8.4506417120331408e-03 1.6019210239658680e-03 -3.6297347092418396e-03
88 -9.6393891989059646e-03 9.7357916481102932e-04 1.0258126942139843e-02
54 -9.6538321935404400e-03 -1.3109312122251955e-02 2.0351646900148582e-02
188 6.7221925096862412e-03 -1.2286021354765043e-02 3.6483661565208051e-03
3 -4.5024710425633930e-03 -4.5757635158520642e-03 9.6715257932682651e-04
169 -5.3820421111498967e-03 2.3567964822211432e-03 1.0597558918301797e-03
87 -2.4948222834135672e-03 -8.7875672873706945e-03 -1.1772002202677706e-02
30 2.7672676836196231e-03 5.0305133795845005e-03 -1.0648319405516492e-02
95 -1.6322967659767495e-02 5.8432431354856111e-03 -7.6922236966924223e-04
51 5.8796893785022040e-03 1.7366099966241614e-02 6.0209584741138722e-03
209 5.2208994266116455e-03 3.2461212474279243e-04 8.6668202108461812e-03
199 -7.0623683055313110e-04 4.2958437385527508e-04 2.2927451303502173e-03
70 8.9786341673982507e-03 6.6059302463828740e-04 -3.4497778878586900e-03
132 -1.2216349907218260e-02 1.2334222895305075e-03 -8.2978310100269900e-04
64 2.0974878123092553e-03 1.6229721147430898e-04 8.0343037170205016e-04
174 8.0841856204012866e-03 8.6930402151622500e-03 5.7037529716299695e-03
144 3.3992398741159988e-03 -4.7707481811550736e-03 -7.3186858322002945e-04
181 1.8372265712913081e-03 -1.3232900598826665e-03 -1.5501510572281394e-03
180 -4.6995044345555688e-03 -8.0992446594559727e-03 8.1010170076856050e-04
18 8.8907647811822237e-03 -1.3781374641024188e-02 1.3411605527600266e-03
212 3.9626377684474521e-03 2.5806338805035157e-03 5.9905147948779018e-05
91 9.9246879255951957e-03 -3.1336457099472768e-03 2.4034354689340099e-03
142 1.9831211991764731e-03 -1.5691550609152438e-03 4.6045084856720757e-03
150 1.4369865672196091e-03 8.7457105603155482e-04 -3.3146536582431547e-04
62 1.0979349897374193e-02 -6.3459782740855879e-03 4.4946877675956032e-03
124 -9.2799715851884183e-03 1.4797222910889940e-03 6.3963067660516059e-03
197 5.3962120962315055e-03 1.5001486189627353e-02 -8.2420811523222330e-03
52 8.8483591033715319e-03 -4.2194148869732807e-03 -1.2030932627710143e-03
152 4.5433981109953194e-04 -9.1190221259688960e-03 3.1022453410121521e-03
12 1.0116712806218927e-02 1.6466196176541728e-02 -5.1412218123145148e-03
112 -6.5129226839541008e-03 6.0152056973450422e-05 1.8567345981695611e-03
134 1.0092569578151914e-03 -1.2412686106246400e-02 -1.2394080894895529e-03
207 -1.7262561837817186e-03 -8.8626108750376447e-03 -3.9839289684713876e-03
208 7.7815283089382953e-03 -1.0222765610626158e-03 -1.7274311333913962e-03
41 -4.4672805323915116e-03 -5.2108318176127117e-04 1.4816993266807700e-02
173 -1.2568554038498119e-02 7.7857315821514362e-03 2.9962438903949522e-03
93 -2.4968938520001749e-03 -4.8934362247190989e-04 2.0408597094527478e-03
176 6.4569340253557185e-03 -7.3104509235807965e-03 -7.7679266289053372e-03
156 1.8584069582836136e-03 -4.6118067209863240e-03 -6.0659637780821757e-03
47 -1.0476839261420099e-02 -2.2644216390634996e-03 -3.3737247119731396e-03
97 -4.1942678228736648e-03 -4.0538330289028614e-04 4.2063662371093630e-03
211 2.5870368908544310e-04 5.6908849955190702e-03 -1.3842614468024498e-03
75 4.7048867736603147e-05 -5.4090754100112395e-03 -8.3848342862396716e-03
149 -8.3238927026981022e-03 -3.2785711669055750e-03 -2.5498333970699798e-03
86 1.8815842426161556e-03 -1.3690410478361751e-02 -5.0464658963598995e-03
98 -1.1300178611229471e-02 -6.0612601393996036e-03 6.3523638637746098e-03
127 -3.8725892653476032e-05 5.5722392790393980e-04 -8.6723733662194755e-03
151 -5.1249515202034749e-03 3.7937642254106717e-03 -3.5030116431341526e-03
6 4.9346652218159766e-03 -3.7964982572650675e-03 7.7399186068136715e-03
195 1.7354429208081179e-03 -1.6862131910237209e-03 -2.3569586457337782e-03
44 -5.7541828305681057e-03 -6.3131924377535726e-03 -4.7737448410781480e-03
116 -1.0696977624959415e-03 -6.2070679951903617e-03 -6.8550587767244459e-03
49 3.5422457747005648e-03 2.6549449282078317e-04 6.7531629026832424e-03
26 8.7664365944322524e-03 7.9675398815599822e-03 -9.7681797615441178e-03
122 -6.6088032912580922e-03 -8.4044579137334870e-03 -2.4303393258961396e-03
183 3.5092018707262901e-03 8.1317208163225029e-03 -8.0309023502031316e-03
216 -5.4061231402309767e-03 -3.1786139390564652e-03 -7.6152801092113981e-03
182 5.5562972420602737e-04 3.5252717081608329e-03 -8.8778167629425201e-03
77 1.2964709314577027e-02 1.0681134963585923e-02 -1.2335907500663327e-03
175 3.4704545862375945e-03 4.3865103559475090e-03 -4.0832202281362896e-03
102 -1.3222479039627585e-03 -3.6400880681692286e-03 -5.2134660618113927e-03
81 8.8198680651517720e-04 1.0009465404480212e-02 3.9256360117760616e-03
210 6.6346469409267238e-03 4.3995409796585188e-03 -1.6417437623805415e-03
42 -2.8914889443035322e-04 -1.6482878314651176e-02 -1.2720255195267019e-02
186 -7.5487171140842517e-04 2.1945076661395680e-03 -6.4032757761139187e-03
114 3.6747443218964294e-03 -1.6616553685727055e-04 -4.9304886571497342e-03
59 -8.5961820325043941e-03 7.8152955501142613e-03 2.8292899566811107e-03
29 4.3661175082658453e-03 1.7338347342993183e-02 4.0376580508192528e-03
92 1.5540061731410808e-02 1.9343922992168167e-03 1.3008905782774171e-04
24 8.4846229728531720e-03 8.1869840371598616e-03 -1.9121725199505381e-03
120 -8.4500100239287158e-03 -4.3984111436046365e-03 -5.7402778873661417e-03
159 -5.7257882760940824e-03 2.1564588520173482e-03 4.3836297624725686e-03
107 3.2746517188763117e-03 3.7344812640024302e-03 2.1195684219853356e-03
137 -1.3354366024780434e-02 2.2171172228895569e-03 6.0311837711566675e-04
135 -5.5538628318101977e-03 -1.9113705265036403e-03 2.9523902702318305e-04
8 -1.0989483042917601e-02 -9.4830407632273024e-03 3.0321436300828324e-03
111 5.1317245607765535e-03 4.9266585081336771e-03 6.8044434463243328e-03
55 8.1172334428528913e-03 2.8565538242291740e-03 4.8218028888297139e-03
14 -4.1265716804405527e-03 -9.9655632775674935e-03 -1.1468658114168748e-03
177 -3.9074420579473332e-03 9.0304728672421309e-04 9.8555522375883466e-03
22 -1.0864210723811225e-02 4.8035409903500539e-03 -8.2958420319991805e-03
76 -7.2377313394706994e-04 -1.0556145823030048e-02 -1.0881037622573595e-02
